^C:\USERS\CORY\DESKTOP\STOCK PROGRAMS\PROJECTS\PROJECTS\POKERLOG\POKERLOG\FORM1.RESX
^C:\USERS\CORY\DESKTOP\STOCK PROGRAMS\PROJECTS\PROJECTS\POKERLOG\POKERLOG\PROPERTIES\RESOURCES.RESX
C:\WINDOWS\MICROSOFT.NET\FRAMEWORK64\V2.0.50727\CONFIG\SECURITY.CONFIG
C:\WINDOWS\MICROSOFT.NET\FRAMEWORK64\V2.0.50727\CONFIG\ENTERPRISESEC.CONFIG
